{
  "data": [
    {
      "id": "1po8r1",
      "url": "https://wallhaven.cc/w/1po8r1",
      "short_url": "https://whvn.cc/1po8r1",
      "views": 110,
      "favorites": 1,
      "source": "",
      "purity": "sfw",
      "category": "general",
      "dimension_x": 1920,
      "dimension_y": 1080,
      "resolution": "1920x1080",
      "ratio": "1.78",
      "file_size": 4682736,
      "file_type": "image/png",
      "created_at": "2023-10-03 14:56:34",
      "colors": [
        "#000000",
        "#663300",
        "#424153",
        "#660000",
        "#996633"
      ],
      "path": "https://w.wallhaven.cc/full/1p/wallhaven-1po8r1.png",
      "thumbs": {
        "large": "https://th.wallhaven.cc/lg/1p/1po8r1.jpg",
        "original": "https://th.wallhaven.cc/orig/1p/1po8r1.jpg",
        "small": "https://th.wallhaven.cc/small/1p/1po8r1.jpg"
      }
    },
    {
      "id": "qzp9lr",
      "url": "https://wallhaven.cc/w/qzp9lr",
      "short_url": "https://whvn.cc/qzp9lr",
      "views": 86,
      "favorites": 1,
      "source": "",
      "purity": "sfw",
      "category": "general",
      "dimension_x": 1920,
      "dimension_y": 1080,
      "resolution": "1920x1080",
      "ratio": "1.78",
      "file_size": 4694372,
      "file_type": "image/png",
      "created_at": "2023-10-03 14:56:34",
      "colors": [
        "#000000",
        "#424153",
        "#663300",
        "#660000",
        "#999999"
      ],
      "path": "https://w.wallhaven.cc/full/qz/wallhaven-qzp9lr.png",
      "thumbs": {
        "large": "https://th.wallhaven.cc/lg/qz/qzp9lr.jpg",
        "original": "https://th.wallhaven.cc/orig/qz/qzp9lr.jpg",
        "small": "https://th.wallhaven.cc/small/qz/qzp9lr.jpg"
      }
    },
    {
      "id": "kxj321",
      "url": "https://wallhaven.cc/w/kxj321",
      "short_url": "https://whvn.cc/kxj321",
      "views": 66,
      "favorites": 1,
      "source": "",
      "purity": "sfw",
      "category": "general",
      "dimension_x": 1920,
      "dimension_y": 1080,
      "resolution": "1920x1080",
      "ratio": "1.78",
      "file_size": 4830814,
      "file_type": "image/png",
      "created_at": "2023-10-03 14:56:34",
      "colors": [
        "#000000",
        "#663300",
        "#996633",
        "#424153",
        "#cc6633"
      ],
      "path": "https://w.wallhaven.cc/full/kx/wallhaven-kxj321.png",
      "thumbs": {
        "large": "https://th.wallhaven.cc/lg/kx/kxj321.jpg",
        "original": "https://th.wallhaven.cc/orig/kx/kxj321.jpg",
        "small": "https://th.wallhaven.cc/small/kx/kxj321.jpg"
      }
    },
    {
      "id": "zyvg5y",
      "url": "https://wallhaven.cc/w/zyvg5y",
      "short_url": "https://whvn.cc/zyvg5y",
      "views": 59,
      "favorites": 1,
      "source": "",
      "purity": "sfw",
      "category": "general",
      "dimension_x": 1920,
      "dimension_y": 1080,
      "resolution": "1920x1080",
      "ratio": "1.78",
      "file_size": 3735700,
      "file_type": "image/png",
      "created_at": "2023-10-03 14:56:34",
      "colors": [
        "#000000",
        "#663300",
        "#424153",
        "#996633",
        "#660000"
      ],
      "path": "https://w.wallhaven.cc/full/zy/wallhaven-zyvg5y.png",
      "thumbs": {
        "large": "https://th.wallhaven.cc/lg/zy/zyvg5y.jpg",
        "original": "https://th.wallhaven.cc/orig/zy/zyvg5y.jpg",
        "small": "https://th.wallhaven.cc/small/zy/zyvg5y.jpg"
      }
    },
    {
      "id": "8587ro",
      "url": "https://wallhaven.cc/w/8587ro",
      "short_url": "https://whvn.cc/8587ro",
      "views": 62,
      "favorites": 1,
      "source": "",
      "purity": "sfw",
      "category": "general",
      "dimension_x": 1920,
      "dimension_y": 1080,
      "resolution": "1920x1080",
      "ratio": "1.78",
      "file_size": 3670068,
      "file_type": "image/png",
      "created_at": "2023-10-03 14:56:33",
      "colors": [
        "#000000",
        "#663300",
        "#660000",
        "#996633",
        "#424153"
      ],
      "path": "https://w.wallhaven.cc/full/85/wallhaven-8587ro.png",
      "thumbs": {
        "large": "https://th.wallhaven.cc/lg/85/8587ro.jpg",
        "original": "https://th.wallhaven.cc/orig/85/8587ro.jpg",
        "small": "https://th.wallhaven.cc/small/85/8587ro.jpg"
      }
    },
    {
      "id": "vqe768",
      "url": "https://wallhaven.cc/w/vqe768",
      "short_url": "https://whvn.cc/vqe768",
      "views": 808,
      "favorites": 21,
      "source": "",
      "purity": "sfw",
      "category": "general",
      "dimension_x": 1266,
      "dimension_y": 1440,
      "resolution": "1266x1440",
      "ratio": "0.88",
      "file_size": 381157,
      "file_type": "image/jpeg",
      "created_at": "2023-10-02 18:43:35",
      "colors": [
        "#424153",
        "#999999",
        "#000000",
        "#996633",
        "#663300"
      ],
      "path": "https://w.wallhaven.cc/full/vq/wallhaven-vqe768.jpg",
      "thumbs": {
        "large": "https://th.wallhaven.cc/lg/vq/vqe768.jpg",
        "original": "https://th.wallhaven.cc/orig/vq/vqe768.jpg",
        "small": "https://th.wallhaven.cc/small/vq/vqe768.jpg"
      }
    },
    {
      "id": "l8devl",
      "url": "https://wallhaven.cc/w/l8devl",
      "short_url": "https://whvn.cc/l8devl",
      "views": 709,
      "favorites": 20,
      "source": "",
      "purity": "sfw",
      "category": "anime",
      "dimension_x": 2633,
      "dimension_y": 1481,
      "resolution": "2633x1481",
      "ratio": "1.78",
      "file_size": 2312468,
      "file_type": "image/png",
      "created_at": "2023-10-02 14:09:32",
      "colors": [
        "#ffffff",
        "#cc3333",
        "#cc6633",
        "#990000",
        "#e7d8b1"
      ],
      "path": "https://w.wallhaven.cc/full/l8/wallhaven-l8devl.png",
      "thumbs": {
        "large": "https://th.wallhaven.cc/lg/l8/l8devl.jpg",
        "original": "https://th.wallhaven.cc/orig/l8/l8devl.jpg",
        "small": "https://th.wallhaven.cc/small/l8/l8devl.jpg"
      }
    },
    {
      "id": "gpd3d3",
      "url": "https://wallhaven.cc/w/gpd3d3",
      "short_url": "https://whvn.cc/gpd3d3",
      "views": 908,
      "favorites": 12,
      "source": "",
      "purity": "sfw",
      "category": "general",
      "dimension_x": 1920,
      "dimension_y": 1080,
      "resolution": "1920x1080",
      "ratio": "1.78",
      "file_size": 345307,
      "file_type": "image/jpeg",
      "created_at": "2023-10-02 04:57:43",
      "colors": [
        "#000000",
        "#424153",
        "#ea4c88",
        "#999999",
        "#cccccc"
      ],
      "path": "https://w.wallhaven.cc/full/gp/wallhaven-gpd3d3.jpg",
      "thumbs": {
        "large": "https://th.wallhaven.cc/lg/gp/gpd3d3.jpg",
        "original": "https://th.wallhaven.cc/orig/gp/gpd3d3.jpg",
        "small": "https://th.wallhaven.cc/small/gp/gpd3d3.jpg"
      }
    },
    {
      "id": "85j2g2",
      "url": "https://wallhaven.cc/w/85j2g2",
      "short_url": "https://whvn.cc/85j2g2",
      "views": 272,
      "favorites": 1,
      "source": "",
      "purity": "sfw",
      "category": "anime",
      "dimension_x": 1920,
      "dimension_y": 1073,
      "resolution": "1920x1073",
      "ratio": "1.79",
      "file_size": 1192523,
      "file_type": "image/png",
      "created_at": "2023-10-01 17:23:13",
      "colors": [
        "#000000",
        "#424153",
        "#999999",
        "#996633",
        "#660000"
      ],
      "path": "https://w.wallhaven.cc/full/85/wallhaven-85j2g2.png",
      "thumbs": {
        "large": "https://th.wallhaven.cc/lg/85/85j2g2.jpg",
        "original": "https://th.wallhaven.cc/orig/85/85j2g2.jpg",
        "small": "https://th.wallhaven.cc/small/85/85j2g2.jpg"
      }
    },
    {
      "id": "gpd3jd",
      "url": "https://wallhaven.cc/w/gpd3jd",
      "short_url": "https://whvn.cc/gpd3jd",
      "views": 884,
      "favorites": 21,
      "source": "",
      "purity": "sfw",
      "category": "general",
      "dimension_x": 2560,
      "dimension_y": 1440,
      "resolution": "2560x1440",
      "ratio": "1.78",
      "file_size": 17394,
      "file_type": "image/png",
      "created_at": "2023-10-01 07:54:37",
      "colors": [
        "#000000",
        "#424153",
        "#660000",
        "#ffff00",
        "#abbcda"
      ],
      "path": "https://w.wallhaven.cc/full/gp/wallhaven-gpd3jd.png",
      "thumbs": {
        "large": "https://th.wallhaven.cc/lg/gp/gpd3jd.jpg",
        "original": "https://th.wallhaven.cc/orig/gp/gpd3jd.jpg",
        "small": "https://th.wallhaven.cc/small/gp/gpd3jd.jpg"
      }
    },
    {
      "id": "7plyk9",
      "url": "https://wallhaven.cc/w/7plyk9",
      "short_url": "https://whvn.cc/7plyk9",
      "views": 1668,
      "favorites": 57,
      "source": "",
      "purity": "sfw",
      "category": "anime",
      "dimension_x": 3506,
      "dimension_y": 2160,
      "resolution": "3506x2160",
      "ratio": "1.62",
      "file_size": 605774,
      "file_type": "image/jpeg",
      "created_at": "2023-09-30 16:19:01",
      "colors": [
        "#abbcda",
        "#424153",
        "#66cccc",
        "#999999",
        "#ffffff"
      ],
      "path": "https://w.wallhaven.cc/full/7p/wallhaven-7plyk9.jpg",
      "thumbs": {
        "large": "https://th.wallhaven.cc/lg/7p/7plyk9.jpg",
        "original": "https://th.wallhaven.cc/orig/7p/7plyk9.jpg",
        "small": "https://th.wallhaven.cc/small/7p/7plyk9.jpg"
      }
    },
    {
      "id": "6dyv1l",
      "url": "https://wallhaven.cc/w/6dyv1l",
      "short_url": "https://whvn.cc/6dyv1l",
      "views": 1423,
      "favorites": 35,
      "source": "",
      "purity": "sfw",
      "category": "anime",
      "dimension_x": 3506,
      "dimension_y": 2160,
      "resolution": "3506x2160",
      "ratio": "1.62",
      "file_size": 686255,
      "file_type": "image/jpeg",
      "created_at": "2023-09-30 16:19:01",
      "colors": [
        "#424153",
        "#999999",
        "#333399",
        "#e7d8b1",
        "#000000"
      ],
      "path": "https://w.wallhaven.cc/full/6d/wallhaven-6dyv1l.jpg",
      "thumbs": {
        "large": "https://th.wallhaven.cc/lg/6d/6dyv1l.jpg",
        "original": "https://th.wallhaven.cc/orig/6d/6dyv1l.jpg",
        "small": "https://th.wallhaven.cc/small/6d/6dyv1l.jpg"
      }
    },
    {
      "id": "o5jzm5",
      "url": "https://wallhaven.cc/w/o5jzm5",
      "short_url": "https://whvn.cc/o5jzm5",
      "views": 1591,
      "favorites": 41,
      "source": "https://www.reddit.com/r/EarthPorn/comments/16vf4q8/5_minutes_before_sunset_in_lofoten_northern/",
      "purity": "sfw",
      "category": "general",
      "dimension_x": 7238,
      "dimension_y": 4825,
      "resolution": "7238x4825",
      "ratio": "1.5",
      "file_size": 11719234,
      "file_type": "image/jpeg",
      "created_at": "2023-09-30 16:13:11",
      "colors": [
        "#424153",
        "#999999",
        "#cccccc",
        "#000000",
        "#ffffff"
      ],
      "path": "https://w.wallhaven.cc/full/o5/wallhaven-o5jzm5.jpg",
      "thumbs": {
        "large": "https://th.wallhaven.cc/lg/o5/o5jzm5.jpg",
        "original": "https://th.wallhaven.cc/orig/o5/o5jzm5.jpg",
        "small": "https://th.wallhaven.cc/small/o5/o5jzm5.jpg"
      }
    },
    {
      "id": "gpdol7",
      "url": "https://wallhaven.cc/w/gpdol7",
      "short_url": "https://whvn.cc/gpdol7",
      "views": 654,
      "favorites": 18,
      "source": "",
      "purity": "sfw",
      "category": "general",
      "dimension_x": 1920,
      "dimension_y": 1080,
      "resolution": "1920x1080",
      "ratio": "1.78",
      "file_size": 1104067,
      "file_type": "image/png",
      "created_at": "2023-09-30 15:19:34",
      "colors": [
        "#000000",
        "#424153",
        "#999999",
        "#996633",
        "#663300"
      ],
      "path": "https://w.wallhaven.cc/full/gp/wallhaven-gpdol7.png",
      "thumbs": {
        "large": "https://th.wallhaven.cc/lg/gp/gpdol7.jpg",
        "original": "https://th.wallhaven.cc/orig/gp/gpdol7.jpg",
        "small": "https://th.wallhaven.cc/small/gp/gpdol7.jpg"
      }
    },
    {
      "id": "6dyveq",
      "url": "https://wallhaven.cc/w/6dyveq",
      "short_url": "https://whvn.cc/6dyveq",
      "views": 2190,
      "favorites": 51,
      "source": "",
      "purity": "sfw",
      "category": "general",
      "dimension_x": 3173,
      "dimension_y": 3681,
      "resolution": "3173x3681",
      "ratio": "0.86",
      "file_size": 754257,
      "file_type": "image/jpeg",
      "created_at": "2023-09-30 10:11:28",
      "colors": [
        "#ffffff",
        "#000000",
        "#424153",
        "#999999",
        "#996633"
      ],
      "path": "https://w.wallhaven.cc/full/6d/wallhaven-6dyveq.jpg",
      "thumbs": {
        "large": "https://th.wallhaven.cc/lg/6d/6dyveq.jpg",
        "original": "https://th.wallhaven.cc/orig/6d/6dyveq.jpg",
        "small": "https://th.wallhaven.cc/small/6d/6dyveq.jpg"
      }
    },
    {
      "id": "jxdmdm",
      "url": "https://wallhaven.cc/w/jxdmdm",
      "short_url": "https://whvn.cc/jxdmdm",
      "views": 805,
      "favorites": 21,
      "source": "",
      "purity": "sfw",
      "category": "general",
      "dimension_x": 3456,
      "dimension_y": 5184,
      "resolution": "3456x5184",
      "ratio": "0.67",
      "file_size": 7916941,
      "file_type": "image/jpeg",
      "created_at": "2023-09-30 10:10:35",
      "colors": [
        "#424153",
        "#663399",
        "#999999",
        "#000000",
        "#996633"
      ],
      "path": "https://w.wallhaven.cc/full/jx/wallhaven-jxdmdm.jpg",
      "thumbs": {
        "large": "https://th.wallhaven.cc/lg/jx/jxdmdm.jpg",
        "original": "https://th.wallhaven.cc/orig/jx/jxdmdm.jpg",
        "small": "https://th.wallhaven.cc/small/jx/jxdmdm.jpg"
      }
    },
    {
      "id": "5g3239",
      "url": "https://wallhaven.cc/w/5g3239",
      "short_url": "https://whvn.cc/5g3239",
      "views": 1773,
      "favorites": 46,
      "source": "https://www.pixiv.net/en/users/15879198",
      "purity": "sfw",
      "category": "general",
      "dimension_x": 4000,
      "dimension_y": 2250,
      "resolution": "4000x2250",
      "ratio": "1.78",
      "file_size": 10295679,
      "file_type": "image/png",
      "created_at": "2023-09-30 10:02:52",
      "colors": [
        "#996633",
        "#e7d8b1",
        "#663300",
        "#cc6633",
        "#424153"
      ],
      "path": "https://w.wallhaven.cc/full/5g/wallhaven-5g3239.png",
      "thumbs": {
        "large": "https://th.wallhaven.cc/lg/5g/5g3239.jpg",
        "original": "https://th.wallhaven.cc/orig/5g/5g3239.jpg",
        "small": "https://th.wallhaven.cc/small/5g/5g3239.jpg"
      }
    },
    {
      "id": "yx9167",
      "url": "https://wallhaven.cc/w/yx9167",
      "short_url": "https://whvn.cc/yx9167",
      "views": 616,
      "favorites": 12,
      "source": "",
      "purity": "sfw",
      "category": "general",
      "dimension_x": 3244,
      "dimension_y": 2160,
      "resolution": "3244x2160",
      "ratio": "1.5",
      "file_size": 3756893,
      "file_type": "image/jpeg",
      "created_at": "2023-09-29 08:52:32",
      "colors": [
        "#000000",
        "#336600",
        "#424153",
        "#abbcda",
        "#666600"
      ],
      "path": "https://w.wallhaven.cc/full/yx/wallhaven-yx9167.jpg",
      "thumbs": {
        "large": "https://th.wallhaven.cc/lg/yx/yx9167.jpg",
        "original": "https://th.wallhaven.cc/orig/yx/yx9167.jpg",
        "small": "https://th.wallhaven.cc/small/yx/yx9167.jpg"
      }
    },
    {
      "id": "5g3eo1",
      "url": "https://wallhaven.cc/w/5g3eo1",
      "short_url": "https://whvn.cc/5g3eo1",
      "views": 484,
      "favorites": 8,
      "source": "",
      "purity": "sfw",
      "category": "general",
      "dimension_x": 3456,
      "dimension_y": 2160,
      "resolution": "3456x2160",
      "ratio": "1.6",
      "file_size": 2169570,
      "file_type": "image/jpeg",
      "created_at": "2023-09-29 08:52:31",
      "colors": [
        "#424153",
        "#66cccc",
        "#000000",
        "#336600",
        "#999999"
      ],
      "path": "https://w.wallhaven.cc/full/5g/wallhaven-5g3eo1.jpg",
      "thumbs": {
        "large": "https://th.wallhaven.cc/lg/5g/5g3eo1.jpg",
        "original": "https://th.wallhaven.cc/orig/5g/5g3eo1.jpg",
        "small": "https://th.wallhaven.cc/small/5g/5g3eo1.jpg"
      }
    },
    {
      "id": "3l2ped",
      "url": "https://wallhaven.cc/w/3l2ped",
      "short_url": "https://whvn.cc/3l2ped",
      "views": 711,
      "favorites": 7,
      "source": "",
      "purity": "sfw",
      "category": "general",
      "dimension_x": 1920,
      "dimension_y": 1080,
      "resolution": "1920x1080",
      "ratio": "1.78",
      "file_size": 4425428,
      "file_type": "image/png",
      "created_at": "2023-09-28 19:07:00",
      "colors": [
        "#424153",
        "#000000",
        "#999999",
        "#e7d8b1",
        "#996633"
      ],
      "path": "https://w.wallhaven.cc/full/3l/wallhaven-3l2ped.png",
      "thumbs": {
        "large": "https://th.wallhaven.cc/lg/3l/3l2ped.jpg",
        "original": "https://th.wallhaven.cc/orig/3l/3l2ped.jpg",
        "small": "https://th.wallhaven.cc/small/3l/3l2ped.jpg"
      }
    },
    {
      "id": "yx9dl7",
      "url": "https://wallhaven.cc/w/yx9dl7",
      "short_url": "https://whvn.cc/yx9dl7",
      "views": 511,
      "favorites": 5,
      "source": "",
      "purity": "sfw",
      "category": "general",
      "dimension_x": 1920,
      "dimension_y": 1080,
      "resolution": "1920x1080",
      "ratio": "1.78",
      "file_size": 4803657,
      "file_type": "image/png",
      "created_at": "2023-09-28 19:07:00",
      "colors": [
        "#424153",
        "#000000",
        "#999999",
        "#996633",
        "#cccccc"
      ],
      "path": "https://w.wallhaven.cc/full/yx/wallhaven-yx9dl7.png",
      "thumbs": {
        "large": "https://th.wallhaven.cc/lg/yx/yx9dl7.jpg",
        "original": "https://th.wallhaven.cc/orig/yx/yx9dl7.jpg",
        "small": "https://th.wallhaven.cc/small/yx/yx9dl7.jpg"
      }
    },
    {
      "id": "5g3x81",
      "url": "https://wallhaven.cc/w/5g3x81",
      "short_url": "https://whvn.cc/5g3x81",
      "views": 539,
      "favorites": 5,
      "source": "",
      "purity": "sfw",
      "category": "general",
      "dimension_x": 1920,
      "dimension_y": 1080,
      "resolution": "1920x1080",
      "ratio": "1.78",
      "file_size": 4632145,
      "file_type": "image/png",
      "created_at": "2023-09-28 19:07:00",
      "colors": [
        "#424153",
        "#999999",
        "#cccccc",
        "#000000",
        "#abbcda"
      ],
      "path": "https://w.wallhaven.cc/full/5g/wallhaven-5g3x81.png",
      "thumbs": {
        "large": "https://th.wallhaven.cc/lg/5g/5g3x81.jpg",
        "original": "https://th.wallhaven.cc/orig/5g/5g3x81.jpg",
        "small": "https://th.wallhaven.cc/small/5g/5g3x81.jpg"
      }
    },
    {
      "id": "l8d6oq",
      "url": "https://wallhaven.cc/w/l8d6oq",
      "short_url": "https://whvn.cc/l8d6oq",
      "views": 741,
      "favorites": 4,
      "source": "",
      "purity": "sfw",
      "category": "general",
      "dimension_x": 1920,
      "dimension_y": 1080,
      "resolution": "1920x1080",
      "ratio": "1.78",
      "file_size": 5111294,
      "file_type": "image/png",
      "created_at": "2023-09-28 19:07:00",
      "colors": [
        "#424153",
        "#000000",
        "#999999",
        "#996633",
        "#cccccc"
      ],
      "path": "https://w.wallhaven.cc/full/l8/wallhaven-l8d6oq.png",
      "thumbs": {
        "large": "https://th.wallhaven.cc/lg/l8/l8d6oq.jpg",
        "original": "https://th.wallhaven.cc/orig/l8/l8d6oq.jpg",
        "small": "https://th.wallhaven.cc/small/l8/l8d6oq.jpg"
      }
    },
    {
      "id": "vqekr8",
      "url": "https://wallhaven.cc/w/vqekr8",
      "short_url": "https://whvn.cc/vqekr8",
      "views": 415,
      "favorites": 2,
      "source": "",
      "purity": "sfw",
      "category": "general",
      "dimension_x": 1920,
      "dimension_y": 1080,
      "resolution": "1920x1080",
      "ratio": "1.78",
      "file_size": 3550450,
      "file_type": "image/png",
      "created_at": "2023-09-28 19:06:59",
      "colors": [
        "#000000",
        "#660000",
        "#663300",
        "#424153",
        "#996633"
      ],
      "path": "https://w.wallhaven.cc/full/vq/wallhaven-vqekr8.png",
      "thumbs": {
        "large": "https://th.wallhaven.cc/lg/vq/vqekr8.jpg",
        "original": "https://th.wallhaven.cc/orig/vq/vqekr8.jpg",
        "small": "https://th.wallhaven.cc/small/vq/vqekr8.jpg"
      }
    }
  ],
  "meta": {
    "current_page": 1,
    "last_page": 1309,
    "per_page": 24,
    "total": 31398,
    "query": "dark",
    "seed": null
  }
}